<svg width="422" height="204" viewBox="0 0 422 204" fill="none" xmlns="http://www.w3.org/2000/svg">
<path d="M0.999985 191.87C20.0764 190.169 61.7039 181.865 75.6024 162.264C92.9756 137.762 101.151 114.28 97.5744 102.54C94.7129 93.1473 81.7341 65.9568 75.6024 53.5356C69.1301 50.8131 55.981 42.5096 55.1634 31.0753C54.1415 16.7824 57.2073 10.1464 66.4049 7.08368C73.7629 4.63347 100.129 3.3403 112.393 2.99998C123.975 5.55228 149.285 13.4134 157.87 24.4393C168.6 38.2217 173.71 51.4937 174.732 57.6192C175.754 63.7448 178.82 75.4853 180.863 80.5899C182.907 85.6946 186.995 133.678 245.757 128.573C304.52 123.469 344.376 61.7029 345.909 57.6192C347.441 53.5356 361.238 17.2929 389.341 31.0753C411.824 42.1012 419.148 94.5425 420 119.385C419.83 134.188 413.459 168.695 389.341 188.297C365.223 207.899 356.809 202.25 355.617 196.975" stroke="black" stroke-width="4" stroke-dasharray="8 8"/>
</svg>
